%YAML 1.1
%TAG !u! tag:unity3d.com,2011:
--- !u!114 &11400000
MonoBehaviour:
  m_ObjectHideFlags: 0
  m_CorrespondingSourceObject: {fileID: 0}
  m_PrefabInstance: {fileID: 0}
  m_PrefabAsset: {fileID: 0}
  m_GameObject: {fileID: 0}
  m_Enabled: 1
  m_EditorHideFlags: 0
  m_Script: {fileID: 1549551891, guid: 74721b9f0af448f5ae2e91102a1a5edd, type: 3}
  m_Name: GlobalSerializationConfig
  m_EditorClassIdentifier: 
  HideSerializationCautionaryMessage: 1
  HidePrefabCautionaryMessage: 0
  HideOdinSerializeAttributeWarningMessages: 0
  HideNonSerializedShowInInspectorWarningMessages: 0
  buildSerializationFormat: 1
  editorSerializationFormat: 2
  loggingPolicy: 0
  errorHandlingPolicy: 0
